begin
atom    -1.2298390000     0.0000000000     5.5217800000 H      0.0000000000     0.0000000000     0.0000000000     0.0000000000     0.0000000000
atom     1.2298390000     0.0000000000    -5.5217800000 H      0.0000000000     0.0000000000     0.0000000000     0.0000000000     0.0000000000
atom     1.9673180000     0.0000000000     1.2298510000 H      0.0000000000     0.0000000000     0.0000000000     0.0000000000     0.0000000000
atom    -1.9673180000     0.0000000000    -1.2298510000 H      0.0000000000     0.0000000000     0.0000000000     0.0000000000     0.0000000000
atom    -2.4533370000     0.0000000000     1.9025200000 O      0.0000000000     0.0000000000     0.0000000000     0.0000000000     0.0000000000
atom     2.4533560000     0.0000000000    -1.9025200000 O      0.0000000000     0.0000000000     0.0000000000     0.0000000000     0.0000000000
atom     1.6424990000     0.0000000000     3.0792330000 O      0.0000000000     0.0000000000     0.0000000000     0.0000000000     0.0000000000
atom    -1.6424990000     0.0000000000    -3.0792330000 O      0.0000000000     0.0000000000     0.0000000000     0.0000000000     0.0000000000
atom    -0.7988760000     0.0000000000     3.5022480000 C      0.0000000000     0.0000000000     0.0000000000     0.0000000000     0.0000000000
atom     0.7988740000     0.0000000000    -3.5022670000 C      0.0000000000     0.0000000000     0.0000000000     0.0000000000     0.0000000000
energy     0.0000000000
charge     0.0000000000
end
