begin

atom          -1.229839000         0.000000000         5.521780000 H       0.000000      0.000000     99.999999     99.999999     99.999999

atom           1.229839000         0.000000000        -5.521780000 H       0.000000      0.000000     99.999999     99.999999     99.999999

atom           1.967318000         0.000000000         1.229851000 H       0.000000      0.000000     99.999999     99.999999     99.999999

atom          -1.967318000         0.000000000        -1.229851000 H       0.000000      0.000000     99.999999     99.999999     99.999999

atom          -2.453337000         0.000000000         1.902520000 O       0.000000      0.000000     99.999999     99.999999     99.999999

atom           2.453356000         0.000000000        -1.902520000 O       0.000000      0.000000     99.999999     99.999999     99.999999

atom           1.642499000         0.000000000         3.079233000 O       0.000000      0.000000     99.999999     99.999999     99.999999

atom          -1.642499000         0.000000000        -3.079233000 O       0.000000      0.000000     99.999999     99.999999     99.999999

atom          -0.798876000         0.000000000         3.502248000 C       0.000000      0.000000     99.999999     99.999999     99.999999

atom           0.798874000         0.000000000        -3.502267000 C       0.000000      0.000000     99.999999     99.999999     99.999999

energy            99.999999

charge             0.000000

end